(footprint "CYBLE-21Pin-10x10mm" (version 20211014) (generator pcbnew)
  (layer "F.Cu")
  (tedit 5A056DAE)
  (descr "Cypress EZ-BLE PRoC Module (Bluetooth Smart) 21 Pin Module")
  (tags "Cypress BT Bluetooth")
  (attr smd)
  (fp_text reference "REF**" (at -3 -5.68) (layer "F.SilkS")
    (effects (font (size 1 1) (thickness 0.15)))
    (tstamp 5f18720a-c728-438e-a4ce-fef360368d7b)
  )
  (fp_text value "CYBLE-21Pin-10x10mm" (at 0 6.99) (layer "F.Fab")
    (effects (font (size 1 1) (thickness 0.15)))
    (tstamp fbda6623-e109-4410-a573-80ad93216dee)
  )
  (fp_text user "Optional Copper Keep Out" (at 2.54 8.89) (layer "Cmts.User")
    (effects (font (size 0.5 0.5) (thickness 0.1)))
    (tstamp 405e191e-af9b-48d2-af87-eebca2f18462)
  )
  (fp_text user "Copper Keep Out" (at 1.51 1.22) (layer "Cmts.User")
    (effects (font (size 0.5 0.5) (thickness 0.1)))
    (tstamp 79c37f9c-aef5-418e-81aa-fe6b813f694e)
  )
  (fp_text user "For Best RF Performance" (at 2.54 10.16) (layer "Cmts.User")
    (effects (font (size 0.5 0.5) (thickness 0.1)))
    (tstamp 9599a7c9-96f7-4483-b4c6-7bbf12566289)
  )
  (fp_text user "${REFERENCE}" (at 0 0) (layer "F.Fab")
    (effects (font (size 1 1) (thickness 0.15)))
    (tstamp 7f09ef7a-7cea-4887-bf03-4f32ee6c6fb2)
  )
  (fp_line (start -5.12 4.65) (end -5.12 5.94) (layer "F.SilkS") (width 0.12) (tstamp 4c8ed9ac-92af-4b22-83c8-35b5136f88f4))
  (fp_line (start -5.12 -4.3) (end -5.12 0.67) (layer "F.SilkS") (width 0.12) (tstamp 6eb72aae-10aa-48ce-a131-733aa866bb60))
  (fp_line (start 5.12 -4.3) (end 5.12 -3.15) (layer "F.SilkS") (width 0.12) (tstamp 85b61d26-fc75-4fed-88c3-5ab25a9a30fb))
  (fp_line (start -5.12 4.65) (end -5.72 4.65) (layer "F.SilkS") (width 0.12) (tstamp 89f3ea82-442e-4100-a371-b0e87f08edd9))
  (fp_line (start 5.12 -4.3) (end 4.65 -4.3) (layer "F.SilkS") (width 0.12) (tstamp 9d7cc490-7957-4936-87ec-0fce7c932aa9))
  (fp_line (start -5.72 4.65) (end -5.72 4) (layer "F.SilkS") (width 0.12) (tstamp a32eed17-c457-420d-a1ba-72686befdb9a))
  (fp_line (start -4.66 -4.3) (end -5.12 -4.3) (layer "F.SilkS") (width 0.12) (tstamp a52c4e40-0f48-4be8-8d85-446c6dd2ea53))
  (fp_line (start -5.12 5.94) (end 5.12 5.94) (layer "F.SilkS") (width 0.12) (tstamp bb791ef6-282c-42bc-824f-025aa95538f5))
  (fp_line (start 5.12 5.94) (end 5.12 0.07) (layer "F.SilkS") (width 0.12) (tstamp bf1e4095-9ba0-4076-811c-dac40bde95fe))
  (fp_line (start -2 0.82) (end 5 5.82) (layer "Dwgs.User") (width 0.12) (tstamp 668b9395-d085-400d-9915-37b89b92ea13))
  (fp_line (start 5 0.82) (end -2 0.82) (layer "Dwgs.User") (width 0.12) (tstamp 8ec986ac-b2a9-414f-bdeb-da2248a87c07))
  (fp_line (start -2 0.82) (end -2 5.82) (layer "Dwgs.User") (width 0.12) (tstamp 9f32b12d-c60f-46b8-9687-00e9ed6207ca))
  (fp_line (start 9 11.82) (end -4 11.82) (layer "Dwgs.User") (width 0.12) (tstamp ad880ca8-5de2-4658-bb7a-634f3ac9cbf5))
  (fp_line (start -4 11.82) (end -4 5.82) (layer "Dwgs.User") (width 0.12) (tstamp b424d323-2c74-45eb-9a75-41f987b6886d))
  (fp_line (start 5 1.82) (end 9 1.82) (layer "Dwgs.User") (width 0.12) (tstamp b7efd943-4375-4831-b6b7-c558fef17f30))
  (fp_line (start 5 0.82) (end -2 5.82) (layer "Dwgs.User") (width 0.12) (tstamp f1630277-d7dd-4008-bd33-c4e9082f73ec))
  (fp_line (start 9 1.82) (end 9 11.82) (layer "Dwgs.User") (width 0.12) (tstamp f7c99a48-0e1a-4b67-a51c-250f096b8e74))
  (fp_line (start 5.7 6.05) (end 5.7 -4.9) (layer "F.CrtYd") (width 0.05) (tstamp 244ee9c0-0aa0-4b07-a21a-5f591949b627))
  (fp_line (start -5.7 -4.9) (end -5.7 6.05) (layer "F.CrtYd") (width 0.05) (tstamp 2cf230b2-8953-4d61-8a0d-9fba303d75e6))
  (fp_line (start -5.7 6.05) (end 5.7 6.05) (layer "F.CrtYd") (width 0.05) (tstamp 8db3336a-0f3c-4653-92a8-17bad80e876a))
  (fp_line (start 5.7 -4.9) (end -5.7 -4.9) (layer "F.CrtYd") (width 0.05) (tstamp ca1134d2-fcd8-46dc-ad08-580e8f561e95))
  (fp_line (start 5 -4.18) (end 5 5.82) (layer "F.Fab") (width 0.1) (tstamp 0de4c9f0-7beb-49c2-a228-0fbe176902f7))
  (fp_line (start -5 -4.18) (end 5 -4.18) (layer "F.Fab") (width 0.1) (tstamp 24cccf15-cbe4-401c-88d8-a70514b841d9))
  (fp_line (start 5 5.82) (end -5 5.82) (layer "F.Fab") (width 0.1) (tstamp 8386ae45-285b-47a1-b276-e89a1561019b))
  (fp_line (start -5 5.82) (end -5 -4.18) (layer "F.Fab") (width 0.1) (tstamp 87e1a2b1-924b-4e7a-954c-b43f6c60efaa))
  (fp_line (start -5 3.9) (end -4.5 4.2) (layer "F.Fab") (width 0.1) (tstamp a5bf401d-748e-4171-b085-0d3ad8cc9d2a))
  (fp_line (start -4.5 4.2) (end -5 4.5) (layer "F.Fab") (width 0.1) (tstamp e09f57c9-8bbe-498c-a4d4-fe0e26ccf6ee))
  (pad "1" smd rect (at -5 4.18) (size 0.91 0.41) (layers "F.Cu" "F.Paste" "F.Mask") (tstamp 0ea1d889-9937-4440-9f1b-fd9f5aab2a12))
  (pad "2" smd rect (at -5 3.42) (size 0.91 0.41) (layers "F.Cu" "F.Paste" "F.Mask") (tstamp 0a3a35de-2e0b-42b9-a722-a5e5fae160f7))
  (pad "3" smd rect (at -5 2.66) (size 0.91 0.41) (layers "F.Cu" "F.Paste" "F.Mask") (tstamp 1d607166-5386-4a08-8697-5ed92716cc0b))
  (pad "4" smd rect (at -5 1.9) (size 0.91 0.41) (layers "F.Cu" "F.Paste" "F.Mask") (tstamp 7555bc18-e21f-4938-b84b-6c59d2414503))
  (pad "5" smd rect (at -5 1.14) (size 0.91 0.41) (layers "F.Cu" "F.Paste" "F.Mask") (tstamp dd422360-0c00-4e9f-bf53-817d1b56bad3))
  (pad "6" smd rect (at -4.19 -4.18) (size 0.41 0.91) (layers "F.Cu" "F.Paste" "F.Mask") (tstamp f0290d9e-96e8-4327-9264-50a4c30f11a1))
  (pad "7" smd rect (at -3.43 -4.18) (size 0.41 0.91) (layers "F.Cu" "F.Paste" "F.Mask") (tstamp 24a636be-1bb9-4640-ac65-02da64094901))
  (pad "8" smd rect (at -2.67 -4.18) (size 0.41 0.91) (layers "F.Cu" "F.Paste" "F.Mask") (tstamp 6f2c8c60-240a-4203-8070-9bf3bc2b95de))
  (pad "9" smd rect (at -1.91 -4.18) (size 0.41 0.91) (layers "F.Cu" "F.Paste" "F.Mask") (tstamp 1ace7c22-e3e5-4655-a03a-4d05ce304d81))
  (pad "10" smd rect (at -1.15 -4.18) (size 0.41 0.91) (layers "F.Cu" "F.Paste" "F.Mask") (tstamp 2e51e087-6d71-433d-8460-0ee89a87e372))
  (pad "11" smd rect (at -0.39 -4.18) (size 0.41 0.91) (layers "F.Cu" "F.Paste" "F.Mask") (tstamp dfa3e799-a40e-46e7-82da-292edb220cf6))
  (pad "12" smd rect (at 0.37 -4.18) (size 0.41 0.91) (layers "F.Cu" "F.Paste" "F.Mask") (tstamp f00ec30c-685f-4e6f-8b9f-e72a0c5e1aa6))
  (pad "13" smd rect (at 1.13 -4.18) (size 0.41 0.91) (layers "F.Cu" "F.Paste" "F.Mask") (tstamp 6809a28d-928c-430b-95a8-b88ce1efdf48))
  (pad "14" smd rect (at 1.89 -4.18) (size 0.41 0.91) (layers "F.Cu" "F.Paste" "F.Mask") (tstamp 562e06bd-44ff-4aae-ab75-6e8dd5f15101))
  (pad "15" smd rect (at 2.65 -4.18) (size 0.41 0.91) (layers "F.Cu" "F.Paste" "F.Mask") (tstamp 52c9ce89-ea4a-493e-9848-0fbe8856dd1f))
  (pad "16" smd rect (at 3.41 -4.18) (size 0.41 0.91) (layers "F.Cu" "F.Paste" "F.Mask") (tstamp 26beefbb-92b2-40f0-b535-abd0e1b57deb))
  (pad "17" smd rect (at 4.17 -4.18) (size 0.41 0.91) (layers "F.Cu" "F.Paste" "F.Mask") (tstamp 7d79be21-69d4-4946-b479-24a56b27d010))
  (pad "18" smd rect (at 5 -2.68) (size 0.91 0.41) (layers "F.Cu" "F.Paste" "F.Mask") (tstamp f9cd1381-910d-47c1-a8c8-a22913c8fcdb))
  (pad "19" smd rect (at 5 -1.92) (size 0.91 0.41) (layers "F.Cu" "F.Paste" "F.Mask") (tstamp 803d301b-b3aa-494c-b47e-c4f8fbc81a58))
  (pad "20" smd rect (at 5 -1.16) (size 0.91 0.41) (layers "F.Cu" "F.Paste" "F.Mask") (tstamp 03e9e0d4-b717-40b4-b59b-f895d7839a2a))
  (pad "21" smd rect (at 5 -0.4) (size 0.91 0.41) (layers "F.Cu" "F.Paste" "F.Mask") (tstamp 1ba8cb03-d330-4a9d-a796-8d1d2a519131))
  (model "${KICAD6_3DMODEL_DIR}/RF_Module.3dshapes/CYBLE-21Pin-10x10mm.wrl"
    (offset (xyz 0 0 0))
    (scale (xyz 1 1 1))
    (rotate (xyz 0 0 0))
  )
)
