(footprint "E18-MS1-PCB" (version 20211014) (generator pcbnew)
  (layer "F.Cu")
  (tedit 5ACF9A19)
  (descr "http://www.cdebyte.com/en/downpdf.aspx?id=122")
  (tags "Zigbee")
  (attr smd)
  (fp_text reference "REF**" (at 0 13.5 180) (layer "F.SilkS")
    (effects (font (size 1 1) (thickness 0.15)))
    (tstamp 91fde465-f728-4474-a30a-2182bf3c2416)
  )
  (fp_text value "E18-MS1-PCB" (at 0 -12.5 180) (layer "F.Fab")
    (effects (font (size 1 1) (thickness 0.15)))
    (tstamp 7f3c3408-4ca0-474c-a451-48b549ca69f9)
  )
  (fp_text user "on any PCB layer." (at 0 -7 180) (layer "Cmts.User")
    (effects (font (size 0.4 0.4) (thickness 0.06)))
    (tstamp 1baff4a0-1f6c-4a44-a233-676a853f9a55)
  )
  (fp_text user "KEEP-OUT ZONE" (at 0 -10 180) (layer "Cmts.User")
    (effects (font (size 1 1) (thickness 0.15)))
    (tstamp 374cf662-85c3-4eb1-b336-313bb31a5a0f)
  )
  (fp_text user "No metal, traces, or components" (at 0 -8 180) (layer "Cmts.User")
    (effects (font (size 0.4 0.4) (thickness 0.06)))
    (tstamp b7b868b5-9ee5-4952-8f3d-a8852f866afd)
  )
  (fp_text user "${REFERENCE}" (at 0 0 180) (layer "F.Fab")
    (effects (font (size 1 1) (thickness 0.15)))
    (tstamp 93d6c7aa-47b4-404e-bc32-fa1f45924613)
  )
  (fp_line (start -7.17 11.62) (end -7.17 10.05) (layer "F.SilkS") (width 0.12) (tstamp 064204a3-4fd6-480b-9a1d-6fe16aea1e65))
  (fp_line (start 5.28 11.62) (end 7.17 11.62) (layer "F.SilkS") (width 0.12) (tstamp 31c24f49-1ca1-478c-80ad-824a54c79b0a))
  (fp_line (start 7.17 11.62) (end 7.17 10.05) (layer "F.SilkS") (width 0.12) (tstamp 391f0e4d-b529-42e9-9213-10640196324b))
  (fp_line (start 7.17 -0.46) (end 7.17 -11.62) (layer "F.SilkS") (width 0.12) (tstamp 62a12ba9-1d29-4dbb-b604-5893f8a6c6c3))
  (fp_line (start -7.17 -11.62) (end -7.17 -0.46) (layer "F.SilkS") (width 0.12) (tstamp a3a9cdb0-5769-4216-8292-5dc64a019ae5))
  (fp_line (start -7.17 11.62) (end -5.28 11.62) (layer "F.SilkS") (width 0.12) (tstamp ab7e28ce-9862-447c-90e0-4dfb5893e687))
  (fp_line (start -7.17 -0.46) (end -7.77 -0.46) (layer "F.SilkS") (width 0.12) (tstamp e247b2ce-876a-4e91-aca3-8565b2f7dafd))
  (fp_line (start 7.17 -11.62) (end -7.17 -11.62) (layer "F.SilkS") (width 0.12) (tstamp ef82d210-5041-449c-b421-f6b8ec8b8c91))
  (fp_line (start -5 -6) (end -7.05 -8.05) (layer "Dwgs.User") (width 0.1) (tstamp 03ff8e45-c984-4e7a-9a3a-20f7bbdc038f))
  (fp_line (start -6 -6) (end -7.05 -7.05) (layer "Dwgs.User") (width 0.1) (tstamp 0ccf0812-e21d-412f-9440-42f97b109f87))
  (fp_line (start -4 -6) (end -7.05 -9.05) (layer "Dwgs.User") (width 0.1) (tstamp 2164e403-d6ed-4cda-b32d-e4e9a66dfc34))
  (fp_line (start -2 -6) (end -7.05 -11.05) (layer "Dwgs.User") (width 0.1) (tstamp 224616fd-1c92-4fce-af55-4b354816e062))
  (fp_line (start 1 -6) (end -4.5 -11.5) (layer "Dwgs.User") (width 0.1) (tstamp 2eb6c714-4986-4c49-ac89-f296336161f1))
  (fp_line (start 7.05 -7.95) (end 3.5 -11.5) (layer "Dwgs.User") (width 0.1) (tstamp 30401451-6b28-4845-9578-1fc54f55aadc))
  (fp_line (start -7.05 -11.5) (end 7.05 -11.5) (layer "Dwgs.User") (width 0.1) (tstamp 48e3e224-a4e2-4de7-8f8b-1758fef8fea2))
  (fp_line (start 7.05 -11.5) (end 7.05 -6) (layer "Dwgs.User") (width 0.1) (tstamp 49dd1aa6-704e-4e19-9337-3ad2ce5e7094))
  (fp_line (start 6.5 -11.5) (end 7.05 -10.95) (layer "Dwgs.User") (width 0.1) (tstamp 57aee84b-69fe-425c-91d2-f0336829cd67))
  (fp_line (start 6 -6) (end 0.5 -11.5) (layer "Dwgs.User") (width 0.1) (tstamp 5cf507bb-c75f-4f46-be5b-b76f735fc732))
  (fp_line (start 2.5 -11.5) (end 7.05 -6.95) (layer "Dwgs.User") (width 0.1) (tstamp 62c9a96e-052c-4b86-bc6e-6fbbce1c8064))
  (fp_line (start 3 -6) (end -2.5 -11.5) (layer "Dwgs.User") (width 0.1) (tstamp 66b0be34-2b11-4fa3-a99b-9e22bc9b596e))
  (fp_line (start 7 -6) (end 1.5 -11.5) (layer "Dwgs.User") (width 0.1) (tstamp 6c9de804-df1c-4ec2-9e15-fc39fb5c1c1f))
  (fp_line (start 5 -6) (end -0.5 -11.5) (layer "Dwgs.User") (width 0.1) (tstamp af20df30-69b2-45bc-8dd3-2c8395e0d716))
  (fp_line (start 7.05 -6) (end -7.05 -6) (layer "Dwgs.User") (width 0.1) (tstamp b396e60a-31c4-45f5-bf10-0601d4613d99))
  (fp_line (start 0 -6) (end -5.5 -11.5) (layer "Dwgs.User") (width 0.1) (tstamp ce6c49a7-420f-453d-98b3-a0036f5ef902))
  (fp_line (start 4 -6) (end -1.5 -11.5) (layer "Dwgs.User") (width 0.1) (tstamp d4e54514-fbbf-479e-851c-509896b934fd))
  (fp_line (start -3 -6) (end -7.05 -10.05) (layer "Dwgs.User") (width 0.1) (tstamp d813b0ef-a937-46ed-8d6c-6b6891bc7b40))
  (fp_line (start 4.5 -11.5) (end 7.05 -8.95) (layer "Dwgs.User") (width 0.1) (tstamp d842502f-4d0f-4365-b406-3e749e6550c6))
  (fp_line (start 7.05 -9.95) (end 5.5 -11.5) (layer "Dwgs.User") (width 0.1) (tstamp d91d86d2-a835-4891-8d34-9df76b386200))
  (fp_line (start 2 -6) (end -3.5 -11.5) (layer "Dwgs.User") (width 0.1) (tstamp f4201a21-434f-468b-bc3c-b01e8760ac0a))
  (fp_line (start -7.05 -6) (end -7.05 -11.5) (layer "Dwgs.User") (width 0.1) (tstamp f86e47ee-2216-4ae0-89a8-8c7c35cbdb65))
  (fp_line (start -1 -6) (end -6.5 -11.5) (layer "Dwgs.User") (width 0.1) (tstamp fd83a356-9471-4c91-811e-a47a07bb5408))
  (fp_line (start -8.3 12.75) (end -8.3 -11.75) (layer "F.CrtYd") (width 0.05) (tstamp 0dc8b90c-821f-4997-86c5-09193145898d))
  (fp_line (start 8.3 12.75) (end -8.3 12.75) (layer "F.CrtYd") (width 0.05) (tstamp 39194a7f-c967-45c5-81b0-184550de680b))
  (fp_line (start -8.3 -11.75) (end 8.3 -11.75) (layer "F.CrtYd") (width 0.05) (tstamp 5be3ad5e-4614-492e-8877-0f77a5dd3c98))
  (fp_line (start 8.3 -11.75) (end 8.3 12.75) (layer "F.CrtYd") (width 0.05) (tstamp 7c8a1cad-4476-438d-ade3-160793989356))
  (fp_line (start -7.05 -11.5) (end 7.05 -11.5) (layer "F.Fab") (width 0.1) (tstamp 35bd193a-b85a-44d2-a27c-1c95642720b6))
  (fp_line (start -7.05 0.7) (end -7.05 11.5) (layer "F.Fab") (width 0.1) (tstamp 6838ba1e-252c-467e-9e23-4d2c037b4617))
  (fp_line (start -7.05 0) (end -6.7 0.35) (layer "F.Fab") (width 0.1) (tstamp 7fb5c2c6-5ed7-4eac-b7f8-086da0a87ceb))
  (fp_line (start -7.05 -11.5) (end -7.05 0) (layer "F.Fab") (width 0.1) (tstamp a751561c-d0a1-463a-a17e-b2129203c8c9))
  (fp_line (start 7.05 -6) (end -7.05 -6) (layer "F.Fab") (width 0.1) (tstamp bd5949a4-f487-4a17-80e9-5426bc601fd9))
  (fp_line (start 7.05 -11.5) (end 7.05 11.5) (layer "F.Fab") (width 0.1) (tstamp e1d9b96b-5153-40f8-bb90-8331e566b8d0))
  (fp_line (start 7.05 11.5) (end -7.05 11.5) (layer "F.Fab") (width 0.1) (tstamp e6ac4d86-9df8-4f3a-8794-252751bd8cd8))
  (fp_line (start -6.7 0.35) (end -7.05 0.7) (layer "F.Fab") (width 0.1) (tstamp ee148b16-dc17-4b16-893d-8b5605adfafb))
  (pad "1" smd rect (at -7.05 0.35 270) (size 0.7 2) (layers "F.Cu" "F.Paste" "F.Mask") (tstamp 1a22b155-30d6-4463-8ee5-bc6ad5154a35))
  (pad "2" smd rect (at -7.05 1.62 270) (size 0.7 2) (layers "F.Cu" "F.Paste" "F.Mask") (tstamp c1dc5e72-6571-40f7-aa2b-e481726c1f11))
  (pad "3" smd rect (at -7.05 2.89 270) (size 0.7 2) (layers "F.Cu" "F.Paste" "F.Mask") (tstamp b23d3903-ab76-4615-a785-d2541f739c9e))
  (pad "4" smd rect (at -7.05 4.16 270) (size 0.7 2) (layers "F.Cu" "F.Paste" "F.Mask") (tstamp f37b1d06-bcd8-465e-92be-221127d3f0f8))
  (pad "5" smd rect (at -7.05 5.43 270) (size 0.7 2) (layers "F.Cu" "F.Paste" "F.Mask") (tstamp cf0e9f24-2ebf-44fb-b3f4-5fb08c8a2777))
  (pad "6" smd rect (at -7.05 6.7 270) (size 0.7 2) (layers "F.Cu" "F.Paste" "F.Mask") (tstamp 5d32bfac-2f3f-4f2b-8d12-945bf54d1c85))
  (pad "7" smd rect (at -7.05 7.97 270) (size 0.7 2) (layers "F.Cu" "F.Paste" "F.Mask") (tstamp 1c09a014-2af8-4ab0-8c9b-a82980cb7c4a))
  (pad "8" smd rect (at -7.05 9.24 270) (size 0.7 2) (layers "F.Cu" "F.Paste" "F.Mask") (tstamp 551dc5be-debc-4307-b6ae-267065648fdd))
  (pad "9" smd rect (at -4.46 11.5 180) (size 0.7 2) (layers "F.Cu" "F.Paste" "F.Mask") (tstamp cdb5df8d-d483-4cc1-b816-d4e56e9f3928))
  (pad "10" smd rect (at -3.19 11.5 180) (size 0.7 2) (layers "F.Cu" "F.Paste" "F.Mask") (tstamp 597ae41d-2ce1-4a3f-866c-2a80d93acff6))
  (pad "11" smd rect (at -1.92 11.5 180) (size 0.7 2) (layers "F.Cu" "F.Paste" "F.Mask") (tstamp 8d6880eb-a41e-444c-9819-1376b7c8ee12))
  (pad "12" smd rect (at -0.65 11.5 180) (size 0.7 2) (layers "F.Cu" "F.Paste" "F.Mask") (tstamp 5953fd16-13fd-4f59-94a8-e9a2a002bb3e))
  (pad "13" smd rect (at 0.62 11.5 180) (size 0.7 2) (layers "F.Cu" "F.Paste" "F.Mask") (tstamp 485eaae0-3b75-4626-947b-e5671a33402f))
  (pad "14" smd rect (at 1.89 11.5 180) (size 0.7 2) (layers "F.Cu" "F.Paste" "F.Mask") (tstamp 61f2c6e4-ff19-4065-98f9-000720f382dc))
  (pad "15" smd rect (at 3.16 11.5 180) (size 0.7 2) (layers "F.Cu" "F.Paste" "F.Mask") (tstamp 95ab0792-f5a0-43c7-925f-fb7bc2ff2170))
  (pad "16" smd rect (at 4.43 11.5 180) (size 0.7 2) (layers "F.Cu" "F.Paste" "F.Mask") (tstamp 4bc1f6a8-f99b-480e-a05c-bcb3a45f6647))
  (pad "17" smd rect (at 7.05 9.24 90) (size 0.7 2) (layers "F.Cu" "F.Paste" "F.Mask") (tstamp ecb46a8a-7768-4559-bdb0-12916fef3c14))
  (pad "18" smd rect (at 7.05 7.97 90) (size 0.7 2) (layers "F.Cu" "F.Paste" "F.Mask") (tstamp debaffd6-c757-45b5-958a-c862c16a1870))
  (pad "19" smd rect (at 7.05 6.7 90) (size 0.7 2) (layers "F.Cu" "F.Paste" "F.Mask") (tstamp 7c08ccdb-c744-4666-a1b8-846155e097fd))
  (pad "20" smd rect (at 7.05 5.43 90) (size 0.7 2) (layers "F.Cu" "F.Paste" "F.Mask") (tstamp 73458dbe-c485-4a07-8096-d7d73ccda968))
  (pad "21" smd rect (at 7.05 4.16 90) (size 0.7 2) (layers "F.Cu" "F.Paste" "F.Mask") (tstamp 010f5f99-d435-4875-b98e-6c1b7c52153e))
  (pad "22" smd rect (at 7.05 2.89 90) (size 0.7 2) (layers "F.Cu" "F.Paste" "F.Mask") (tstamp fb20591d-0b97-451c-b261-585307a3f8aa))
  (pad "23" smd rect (at 7.05 1.62 90) (size 0.7 2) (layers "F.Cu" "F.Paste" "F.Mask") (tstamp 4364e969-f442-44bd-8f08-47ca758596ce))
  (pad "24" smd rect (at 7.05 0.35 90) (size 0.7 2) (layers "F.Cu" "F.Paste" "F.Mask") (tstamp fb1a898e-42f1-461e-b2c4-8de2a6c6b6f8))
  (model "${KICAD6_3DMODEL_DIR}/RF_Module.3dshapes/E18-MS1-PCB.wrl"
    (offset (xyz 0 0 0))
    (scale (xyz 1 1 1))
    (rotate (xyz 0 0 0))
  )
)
