(footprint "Raytac_MDBT50Q" (version 20211014) (generator pcbnew)
  (layer "F.Cu")
  (tedit 5F334925)
  (descr "Multiprotocol radio SoC module https://www.raytac.com/download/index.php?index_id=43")
  (tags "wireless 2.4 GHz Bluetooth ble zigbee 802.15.4 thread nordic raytac nrf52840 nrf52833")
  (attr smd)
  (fp_text reference "REF**" (at -6 0 270) (layer "F.SilkS")
    (effects (font (size 1 1) (thickness 0.15)))
    (tstamp 7d5aa619-6d8d-452b-b76a-95b8f4e87973)
  )
  (fp_text value "Raytac_MDBT50Q" (at 0.2 8.95) (layer "F.Fab")
    (effects (font (size 1 1) (thickness 0.15)))
    (tstamp 21266a8e-3377-4d6d-8c7a-1af8480e0f70)
  )
  (fp_text user "TOP LAYER" (at -1.6 -3.6) (layer "Cmts.User")
    (effects (font (size 0.4 0.4) (thickness 0.04)))
    (tstamp b205708b-7267-4e77-8fef-0492dcc436a2)
  )
  (fp_text user "KEEP OUT" (at -1.5 -3.1) (layer "Cmts.User")
    (effects (font (size 0.4 0.4) (thickness 0.04)))
    (tstamp c7a81dbd-df68-47e0-8ee4-b6767b1b2a99)
  )
  (fp_text user "KEEP OUT ZONE" (at 0.05 -5.75) (layer "Cmts.User")
    (effects (font (size 0.8 0.8) (thickness 0.15)))
    (tstamp d3b4c3c4-4b9e-4ff3-83f0-b822883ccc4a)
  )
  (fp_text user "${REFERENCE}" (at 0.05 1.75) (layer "F.Fab")
    (effects (font (size 1 1) (thickness 0.15)))
    (tstamp 209352fd-24c5-4e81-b9fd-a197c7b3284f)
  )
  (fp_line (start -4.25 -7.85) (end -5.35 -7.85) (layer "F.SilkS") (width 0.12) (tstamp 60e3aae0-4d1c-4c33-830d-ef5e41ce1d4b))
  (fp_line (start 5.35 -7.85) (end 5.35 -6.75) (layer "F.SilkS") (width 0.12) (tstamp 76609669-138a-4f12-917d-5fb095b997f8))
  (fp_line (start -5.6 -4.3) (end -5.6 -3.2) (layer "F.SilkS") (width 0.12) (tstamp 9d02ff66-5e73-4017-bed7-3076ea4e9c1b))
  (fp_line (start 4.25 -7.85) (end 5.35 -7.85) (layer "F.SilkS") (width 0.12) (tstamp ac644224-b500-4e7a-9814-09c72d752771))
  (fp_line (start -5.35 -7.85) (end -5.35 -3.2) (layer "F.SilkS") (width 0.12) (tstamp aec60c23-db0e-4da9-9566-84be28251dae))
  (fp_line (start 5.35 7.85) (end 4.25 7.85) (layer "F.SilkS") (width 0.12) (tstamp bd7e5b54-c306-4604-89a0-5bb29a6420a4))
  (fp_line (start 5.35 6.75) (end 5.35 7.85) (layer "F.SilkS") (width 0.12) (tstamp e0f5b61c-3a8f-45ba-a17d-2b21e85304c8))
  (fp_line (start -5.35 6.75) (end -5.35 7.85) (layer "F.SilkS") (width 0.12) (tstamp ef7c4d5a-243c-4dc3-b469-72fcfd9ea994))
  (fp_line (start -5.35 7.85) (end -4.25 7.85) (layer "F.SilkS") (width 0.12) (tstamp f443c591-e77d-4541-ad7f-ab886d514165))
  (fp_line (start -1.4 -3.95) (end -0.7 -3.25) (layer "Dwgs.User") (width 0.05) (tstamp 00f1f692-0777-41c6-9a61-e20e1845f22e))
  (fp_line (start -6.2 -3.95) (end 6.2 -3.95) (layer "Dwgs.User") (width 0.05) (tstamp 1900de2d-ecf8-44bb-b713-b682bf222c71))
  (fp_line (start 2.8 -7.75) (end -1 -3.95) (layer "Dwgs.User") (width 0.05) (tstamp 19b644de-9d05-4806-bbc2-3b2f36d5dddd))
  (fp_line (start -2.3 -3.65) (end -1.4 -2.75) (layer "Dwgs.User") (width 0.05) (tstamp 27c7683f-6f76-4191-bdbf-5784f382d4a3))
  (fp_line (start -2.3 -2.85) (end -2.2 -2.75) (layer "Dwgs.User") (width 0.05) (tstamp 33ce7ca8-ffbf-40dc-b1de-5521cb5cfc3a))
  (fp_line (start -3.2 -7.75) (end -6.2 -4.75) (layer "Dwgs.User") (width 0.05) (tstamp 3a652657-fa94-4da7-a51c-ac87e82f3265))
  (fp_line (start -2.2 -7.75) (end -6 -3.95) (layer "Dwgs.User") (width 0.05) (tstamp 3c74966d-e44c-415c-9586-962fd6ad28b5))
  (fp_line (start 6.2 -7.75) (end 6.2 -3.95) (layer "Dwgs.User") (width 0.05) (tstamp 484120a7-2649-4ea5-ad19-0570d6fd0199))
  (fp_line (start -1.2 -7.75) (end -5 -3.95) (layer "Dwgs.User") (width 0.05) (tstamp 4e568b97-b5fc-4575-b18f-8d557148480d))
  (fp_line (start -4.2 -7.75) (end -6.2 -5.75) (layer "Dwgs.User") (width 0.05) (tstamp 5757c22c-2afc-4c34-9416-1590dd0b0e7d))
  (fp_line (start -2.3 -3.95) (end -2.3 -2.75) (layer "Dwgs.User") (width 0.05) (tstamp 5f808097-415f-4700-9f59-84abcf0c807f))
  (fp_line (start -0.7 -3.95) (end -0.7 -2.75) (layer "Dwgs.User") (width 0.05) (tstamp 6891fc03-33aa-4bd9-b3ea-c82955b7b4c2))
  (fp_line (start -2.3 -3.25) (end -1.8 -2.75) (layer "Dwgs.User") (width 0.05) (tstamp 79a5b7d9-f146-482f-a057-9dca7028e285))
  (fp_line (start 0.8 -7.75) (end -3 -3.95) (layer "Dwgs.User") (width 0.05) (tstamp 7b0c1722-681c-4a90-98fd-71f4d2eca50c))
  (fp_line (start 5 -3.95) (end 6.2 -5.15) (layer "Dwgs.User") (width 0.05) (tstamp 81397e9b-53cc-467c-9f24-e7e829d5bd65))
  (fp_line (start -4 -3.95) (end -0.2 -7.75) (layer "Dwgs.User") (width 0.05) (tstamp 816cb9b1-6332-4b33-a2f0-ce4418617838))
  (fp_line (start -6.2 -3.95) (end -6.2 -7.75) (layer "Dwgs.User") (width 0.05) (tstamp 877d5527-423d-40ee-bc20-54f18e285329))
  (fp_line (start -6.2 -7.75) (end 6.2 -7.75) (layer "Dwgs.User") (width 0.05) (tstamp 970462e0-17a5-4dbc-905e-2d4da59d2862))
  (fp_line (start 4.8 -7.75) (end 1 -3.95) (layer "Dwgs.User") (width 0.05) (tstamp 9d8d24c6-a836-448c-bf98-67a3842f2bcb))
  (fp_line (start 6.2 -7.15) (end 3 -3.95) (layer "Dwgs.User") (width 0.05) (tstamp a02e0334-10dc-48ec-811a-ac28a2e26551))
  (fp_line (start 5.8 -7.75) (end 2 -3.95) (layer "Dwgs.User") (width 0.05) (tstamp a20f52ed-c4a2-4a33-858b-7a3928e88b7c))
  (fp_line (start -2 -3.95) (end 1.8 -7.75) (layer "Dwgs.User") (width 0.05) (tstamp bb6b4798-2688-43ce-95f1-ede32d6bdc19))
  (fp_line (start -2.3 -3.95) (end -0.7 -3.95) (layer "Dwgs.User") (width 0.05) (tstamp c314ff2a-699b-4a4e-aa97-b3799260e055))
  (fp_line (start -0.7 -2.75) (end -2.3 -2.75) (layer "Dwgs.User") (width 0.05) (tstamp ccf1f5b6-72a2-4917-a77c-6e3439d3ef8e))
  (fp_line (start -1 -3.95) (end -0.7 -3.65) (layer "Dwgs.User") (width 0.05) (tstamp dc96e062-4173-4cd3-8049-589d9e9aa36a))
  (fp_line (start 6 -3.95) (end 6.2 -4.15) (layer "Dwgs.User") (width 0.05) (tstamp ded91d45-bdcd-4722-99a5-d254b19ff237))
  (fp_line (start -1.8 -3.95) (end -0.7 -2.85) (layer "Dwgs.User") (width 0.05) (tstamp e70db7b3-374e-40f2-aba0-17268b10d1b2))
  (fp_line (start -2.2 -3.95) (end -1 -2.75) (layer "Dwgs.User") (width 0.05) (tstamp e7591aed-6255-40e6-8bf5-60ce88720b3c))
  (fp_line (start -5.2 -7.75) (end -6.2 -6.75) (layer "Dwgs.User") (width 0.05) (tstamp ec09ccd8-3367-42d7-bdca-08d8c5261a9a))
  (fp_line (start 4 -3.95) (end 6.2 -6.15) (layer "Dwgs.User") (width 0.05) (tstamp eeb5eeea-e147-490e-a8fd-a094e082eab6))
  (fp_line (start 3.8 -7.75) (end 0 -3.95) (layer "Dwgs.User") (width 0.05) (tstamp f289536b-68c4-4fe8-ac8a-be43c40aba49))
  (fp_line (start -5.75 -8.25) (end 5.75 -8.25) (layer "F.CrtYd") (width 0.05) (tstamp 223fce80-d6dd-40d4-a689-a9e5ba899700))
  (fp_line (start -5.75 8.25) (end 5.75 8.25) (layer "F.CrtYd") (width 0.05) (tstamp 43ae6b39-b624-406c-a57e-9dbb6b655149))
  (fp_line (start -5.75 -8.25) (end -5.75 8.25) (layer "F.CrtYd") (width 0.05) (tstamp 44eb39b7-bcf5-4568-a1bf-661c819a33b5))
  (fp_line (start 5.75 -8.25) (end 5.75 8.25) (layer "F.CrtYd") (width 0.05) (tstamp 4524d306-4ff1-4eae-960b-5dbb36d21679))
  (fp_line (start -5.25 -7.75) (end 5.25 -7.75) (layer "F.Fab") (width 0.1) (tstamp 2007fcd4-e820-4104-acf5-d7be7b8023e1))
  (fp_line (start -4.25 -3.75) (end -5.25 -4.25) (layer "F.Fab") (width 0.1) (tstamp 226d17e7-94ee-428d-91ce-02f59a52ba9e))
  (fp_line (start 5.25 7.75) (end -5.25 7.75) (layer "F.Fab") (width 0.1) (tstamp 2ce1dcee-50ea-48fa-87c4-87bbc382f501))
  (fp_line (start -5.25 7.75) (end -5.25 -7.75) (layer "F.Fab") (width 0.1) (tstamp 4fe51136-4838-4e05-89d6-005c9083932b))
  (fp_line (start 5.25 -7.75) (end 5.25 7.75) (layer "F.Fab") (width 0.1) (tstamp 6fe9b9ab-a5f4-4444-9cdd-0a47fd9447b2))
  (fp_line (start -4.25 -3.75) (end -5.25 -3.25) (layer "F.Fab") (width 0.1) (tstamp 799d745f-b879-4cd5-99ea-a39d5ccb8ecf))
  (pad "1" smd rect (at -4.65 -3.75) (size 0.6 0.4) (layers "F.Cu" "F.Paste" "F.Mask") (tstamp 78e07897-69f6-4d1a-a9eb-e47d36335bb9))
  (pad "2" smd rect (at -4.65 -2.65) (size 0.6 0.4) (layers "F.Cu" "F.Paste" "F.Mask") (tstamp 28cacae4-e9ae-4b82-aac1-ceb76af83389))
  (pad "3" smd rect (at -4.65 -1.85) (size 0.6 0.4) (layers "F.Cu" "F.Paste" "F.Mask") (tstamp 3543bc09-7d69-43ee-b702-a70df207f815))
  (pad "4" smd rect (at -4.65 -0.25) (size 0.6 0.4) (layers "F.Cu" "F.Paste" "F.Mask") (tstamp c51382cc-b1bc-4593-95bb-7fcc84dbf629))
  (pad "5" smd rect (at -3.75 0.15) (size 0.6 0.4) (layers "F.Cu" "F.Paste" "F.Mask") (tstamp 0ca6f917-0f80-43ee-87c1-4e71b84d29e1))
  (pad "6" smd rect (at -4.65 0.55) (size 0.6 0.4) (layers "F.Cu" "F.Paste" "F.Mask") (tstamp b16a0ad4-3b0d-4e5a-bc6b-867477e030cb))
  (pad "7" smd rect (at -3.75 0.95) (size 0.6 0.4) (layers "F.Cu" "F.Paste" "F.Mask") (tstamp 0d6cc0cc-2095-48f3-b8da-3c43b3b52d21))
  (pad "8" smd rect (at -4.65 1.35) (size 0.6 0.4) (layers "F.Cu" "F.Paste" "F.Mask") (tstamp e87eefaf-cb31-4448-8ad2-61490d47ebe9))
  (pad "9" smd rect (at -3.75 1.75) (size 0.6 0.4) (layers "F.Cu" "F.Paste" "F.Mask") (tstamp 78097cc0-c3c0-4f38-886d-8e7840f4a036))
  (pad "10" smd rect (at -4.65 2.15) (size 0.6 0.4) (layers "F.Cu" "F.Paste" "F.Mask") (tstamp 940401bd-fbfe-4b16-bcc6-6cb29f8d21d4))
  (pad "11" smd rect (at -3.75 2.55) (size 0.6 0.4) (layers "F.Cu" "F.Paste" "F.Mask") (tstamp 4a2ef514-b6f0-40ae-9f7c-310366dd768a))
  (pad "12" smd rect (at -4.65 2.95) (size 0.6 0.4) (layers "F.Cu" "F.Paste" "F.Mask") (tstamp ca18347e-c10a-4919-8936-ff6560aec0fa))
  (pad "13" smd rect (at -3.75 3.35) (size 0.6 0.4) (layers "F.Cu" "F.Paste" "F.Mask") (tstamp 4c9c0415-d502-41a9-aa19-a69ff362c395))
  (pad "14" smd rect (at -4.65 3.75) (size 0.6 0.4) (layers "F.Cu" "F.Paste" "F.Mask") (tstamp cfd27900-8a82-4a9b-9c31-89462576da9f))
  (pad "15" smd rect (at -4.8 7.15 90) (size 0.6 0.4) (layers "F.Cu" "F.Paste" "F.Mask") (tstamp 00e1292d-309e-4121-9088-d92255b1b1a2))
  (pad "16" smd rect (at -4 7.15 90) (size 0.6 0.4) (layers "F.Cu" "F.Paste" "F.Mask") (tstamp 7526eac3-0b18-4719-a1d5-07c907746561))
  (pad "17" smd rect (at -3.2 7.15 90) (size 0.6 0.4) (layers "F.Cu" "F.Paste" "F.Mask") (tstamp e2c4afec-9641-4f4f-9f4e-70091d748190))
  (pad "18" smd rect (at -2.4 7.15 90) (size 0.6 0.4) (layers "F.Cu" "F.Paste" "F.Mask") (tstamp 6fc8feb6-5ee2-4114-a17f-7420a0f7275b))
  (pad "19" smd rect (at -2 6.25 90) (size 0.6 0.4) (layers "F.Cu" "F.Paste" "F.Mask") (tstamp 5aa6994f-3074-4e16-bcaa-219078e17ed7))
  (pad "20" smd rect (at -1.6 7.15 90) (size 0.6 0.4) (layers "F.Cu" "F.Paste" "F.Mask") (tstamp 4e608174-5484-44a5-bb7c-f45309b8dbc6))
  (pad "21" smd rect (at -1.2 6.25 90) (size 0.6 0.4) (layers "F.Cu" "F.Paste" "F.Mask") (tstamp e78bc2c1-fe73-42cf-80a0-6ea180bbe0d9))
  (pad "22" smd rect (at -0.8 7.15 90) (size 0.6 0.4) (layers "F.Cu" "F.Paste" "F.Mask") (tstamp 6cf99153-31b8-46c7-afa3-1b8c3262ba7a))
  (pad "23" smd rect (at -0.4 6.25 90) (size 0.6 0.4) (layers "F.Cu" "F.Paste" "F.Mask") (tstamp 1ef74a3a-d4e1-4b35-85c5-bfac35bc6e1f))
  (pad "24" smd rect (at 0 7.15 90) (size 0.6 0.4) (layers "F.Cu" "F.Paste" "F.Mask") (tstamp f95e9f3e-9520-4ab5-9c1c-f53084e10758))
  (pad "25" smd rect (at 0.4 6.25 90) (size 0.6 0.4) (layers "F.Cu" "F.Paste" "F.Mask") (tstamp e3d69741-e0db-4c2e-948c-521602323d4b))
  (pad "26" smd rect (at 0.8 7.15 90) (size 0.6 0.4) (layers "F.Cu" "F.Paste" "F.Mask") (tstamp 80e1a619-f5f5-4487-958e-bd59d5cd7ed7))
  (pad "27" smd rect (at 1.2 6.25 90) (size 0.6 0.4) (layers "F.Cu" "F.Paste" "F.Mask") (tstamp 73bb1181-c71d-4892-a1a9-caaca12adf0f))
  (pad "28" smd rect (at 1.6 7.15 90) (size 0.6 0.4) (layers "F.Cu" "F.Paste" "F.Mask") (tstamp 4d3a94d8-7aea-464d-b33b-4eed4419ac75))
  (pad "29" smd rect (at 2 6.25 90) (size 0.6 0.4) (layers "F.Cu" "F.Paste" "F.Mask") (tstamp 83786698-dc0d-450d-ac3f-ba2c4bc9dcc5))
  (pad "30" smd rect (at 2.4 7.15 90) (size 0.6 0.4) (layers "F.Cu" "F.Paste" "F.Mask") (tstamp 624c3d2d-30d0-4937-850f-ae7c14bacbb9))
  (pad "31" smd rect (at 3.2 7.15 90) (size 0.6 0.4) (layers "F.Cu" "F.Paste" "F.Mask") (tstamp 6ee7f404-3f7b-4116-915d-f7a0460159b2))
  (pad "32" smd rect (at 4 7.15 90) (size 0.6 0.4) (layers "F.Cu" "F.Paste" "F.Mask") (tstamp 9f4b2744-8cba-4c71-966d-b58def2b64be))
  (pad "33" smd rect (at 4.8 7.15 90) (size 0.6 0.4) (layers "F.Cu" "F.Paste" "F.Mask") (tstamp 873b85d2-4808-44a2-9daa-8216c80d6da0))
  (pad "34" smd rect (at 4.65 6.15) (size 0.6 0.4) (layers "F.Cu" "F.Paste" "F.Mask") (tstamp dd7d4d30-cb46-41c0-9325-eb0031a48f7e))
  (pad "35" smd rect (at 4.65 5.35) (size 0.6 0.4) (layers "F.Cu" "F.Paste" "F.Mask") (tstamp 5e10e1db-12d2-4270-a670-a38bfc786633))
  (pad "36" smd rect (at 3.75 4.95) (size 0.6 0.4) (layers "F.Cu" "F.Paste" "F.Mask") (tstamp 35938dc6-887d-4a0a-b89a-e771495ea8ec))
  (pad "37" smd rect (at 4.65 4.55) (size 0.6 0.4) (layers "F.Cu" "F.Paste" "F.Mask") (tstamp 718d7dc4-4a3f-40ac-97ad-7e7f42e49b8c))
  (pad "38" smd rect (at 3.75 4.15) (size 0.6 0.4) (layers "F.Cu" "F.Paste" "F.Mask") (tstamp 6bd45550-1d5a-4665-abdd-25674dd0e470))
  (pad "39" smd rect (at 4.65 3.75) (size 0.6 0.4) (layers "F.Cu" "F.Paste" "F.Mask") (tstamp 1e18b222-ce9a-4051-8855-d8fbd1959597))
  (pad "40" smd rect (at 3.75 3.35) (size 0.6 0.4) (layers "F.Cu" "F.Paste" "F.Mask") (tstamp b074a795-b366-410a-88f1-2bdc469580bb))
  (pad "41" smd rect (at 4.65 2.95) (size 0.6 0.4) (layers "F.Cu" "F.Paste" "F.Mask") (tstamp 584e4ee6-f192-44a1-87c9-97f178382992))
  (pad "42" smd rect (at 3.75 2.55) (size 0.6 0.4) (layers "F.Cu" "F.Paste" "F.Mask") (tstamp 1be0e170-256a-46ba-b372-d7c7d4b4e5e2))
  (pad "43" smd rect (at 3.75 1.75) (size 0.6 0.4) (layers "F.Cu" "F.Paste" "F.Mask") (tstamp 4d636cf9-aca5-4e17-94d0-24c268574986))
  (pad "44" smd rect (at 4.65 1.35) (size 0.6 0.4) (layers "F.Cu" "F.Paste" "F.Mask") (tstamp 0687d6ca-4ca3-4c19-816c-d7bfd2e2887c))
  (pad "45" smd rect (at 3.75 0.95) (size 0.6 0.4) (layers "F.Cu" "F.Paste" "F.Mask") (tstamp eaf0d0da-66d0-4623-ba8b-631b7a3b8d3c))
  (pad "46" smd rect (at 4.65 0.55) (size 0.6 0.4) (layers "F.Cu" "F.Paste" "F.Mask") (tstamp bce54f71-78e5-4582-934d-14e2d216187e))
  (pad "47" smd rect (at 3.75 0.15) (size 0.6 0.4) (layers "F.Cu" "F.Paste" "F.Mask") (tstamp f74164ce-3206-49e8-a7bd-115774f676cd))
  (pad "48" smd rect (at 4.65 -0.25) (size 0.6 0.4) (layers "F.Cu" "F.Paste" "F.Mask") (tstamp 97af1e2a-7142-4657-9806-d3c54885becd))
  (pad "49" smd rect (at 3.75 -0.65) (size 0.6 0.4) (layers "F.Cu" "F.Paste" "F.Mask") (tstamp 055107b1-3c5c-4008-a667-15c682751336))
  (pad "50" smd rect (at 3.75 -1.45) (size 0.6 0.4) (layers "F.Cu" "F.Paste" "F.Mask") (tstamp 122c3ef2-5e42-4f28-b2ec-07171e2c8fb9))
  (pad "51" smd rect (at 4.65 -1.85) (size 0.6 0.4) (layers "F.Cu" "F.Paste" "F.Mask") (tstamp d652d25f-85bf-4348-93bc-08b0a6b9fc6e))
  (pad "52" smd rect (at 3.75 -2.25) (size 0.6 0.4) (layers "F.Cu" "F.Paste" "F.Mask") (tstamp 6fcda3a5-9b61-4911-9dd7-e0414f04c9d9))
  (pad "53" smd rect (at 4.65 -2.65) (size 0.6 0.4) (layers "F.Cu" "F.Paste" "F.Mask") (tstamp f846ba5e-edfe-4fae-ba1a-21f9e3187070))
  (pad "54" smd rect (at 3.75 -3.05) (size 0.6 0.4) (layers "F.Cu" "F.Paste" "F.Mask") (tstamp 198e1853-bf75-4832-8654-e747836344b3))
  (pad "55" smd rect (at 4.65 -3.75) (size 0.6 0.4) (layers "F.Cu" "F.Paste" "F.Mask") (tstamp 85cf5242-4fd2-47ea-b1e7-85b35dc28fd7))
  (pad "56" smd rect (at -2 0.55 90) (size 0.6 0.4) (layers "F.Cu" "F.Paste" "F.Mask") (tstamp a07ee321-b2c7-424d-aece-9251393be11b))
  (pad "57" smd rect (at -1.2 0.55 90) (size 0.6 0.4) (layers "F.Cu" "F.Paste" "F.Mask") (tstamp d186f5a6-f6b2-45e7-9f36-1d7413640d1e))
  (pad "58" smd rect (at -0.4 0.55 90) (size 0.6 0.4) (layers "F.Cu" "F.Paste" "F.Mask") (tstamp 2217ad88-0055-4c01-9c2d-c352f95d5d54))
  (pad "59" smd rect (at 0.4 0.55 90) (size 0.6 0.4) (layers "F.Cu" "F.Paste" "F.Mask") (tstamp 9eb9e747-c869-47c8-9872-3ab7e2b873cb))
  (pad "60" smd rect (at 1.2 0.55 90) (size 0.6 0.4) (layers "F.Cu" "F.Paste" "F.Mask") (tstamp b34300ed-bbc3-403d-9791-4f70575c41e3))
  (pad "61" smd rect (at 2 0.55 90) (size 0.6 0.4) (layers "F.Cu" "F.Paste" "F.Mask") (tstamp 0776db27-8b9e-46fc-b107-c58d1f338176))
  (model "${KICAD6_3DMODEL_DIR}/RF_Module.3dshapes/Raytac_MDBT50Q.wrl"
    (offset (xyz 0 0 0))
    (scale (xyz 1 1 1))
    (rotate (xyz 0 0 0))
  )
)
